{
    "name": "Noticias",
    "alias": "noticias",
    "description": "",
    "keywords": [],
    "active": 1,
    "order": 1,
    "providers": [
        "App\\Modules\\Noticias\\Providers\\NoticiasServiceProvider"
    ],
    "aliases": {},
    "files": [
        "start.php"
    ],
    "requires": []
}
