{
    "name": "Multimedia",
    "alias": "multimedia",
    "description": "",
    "keywords": [],
    "active": 1,
    "order": 0,
    "providers": [
        "App\\Modules\\Multimedia\\Providers\\MultimediaServiceProvider"
    ],
    "aliases": {},
    "files": [
        "start.php"
    ],
    "requires": []
}
