{
    "name": "Banner",
    "alias": "banner",
    "description": "",
    "keywords": [],
    "active": 1,
    "order": 2,
    "providers": [
        "App\\Modules\\Banner\\Providers\\BannerServiceProvider"
    ],
    "aliases": {},
    "files": [
        "start.php"
    ],
    "requires": []
}
