{
    "name": "Incidencias",
    "alias": "incidencias",
    "description": "",
    "keywords": [],
    "active": 1,
    "order": 10,
    "providers": [
        "App\\Modules\\Incidencias\\Providers\\IncidenciasServiceProvider"
    ],
    "aliases": {},
    "files": [
        "start.php"
    ],
    "requires": []
}
